Statistische analyse en presentatie met R - 1 Relaties tussen Continue Variabelen
…
1

We converteren onze dataset onmiddellijk naar een ‘tibble’. Dit is niet nodig maar geeft ons een beter overzicht. Zie Statistiek I, 2.1.

Warning

Maak gebruik van een R project folder om je data files, scripts en opdrachten in te bewaren. Dit maakt werken met R een stuk gemakkelijker. Hoe je dit doet wordt beschreven in Statistiek I, 1.5. Wanneer je data inlaadt, doe dit dan niet door te dubbelklikken op het bestand op je computer, maar gebruik hiervoor de import() syntax uit het rio package. Zie Section A.1.2.

1.1 Ter herinnering: data objecten

We kunnen de inhoud van een data object op verschillende manieren bekijken. Vaak gaat een dataset gepaard met een codeboek dat we kunnen inkijken, maar we kunnen ook data verder inspecteren met R. We kunnen bijvoorbeeld gewoon de naam van het data object (hier: ‘demdata’) typen om vervolgens de inhoud te printen. De ‘tibble’ transformatie maakt dit overzichtelijker:

demdata

# A tibble: 179 × 41
   country_name  year v2x_polyarchy v2x_libdem v2x_egaldem v2cacamps v2caviol
   <chr>        <dbl>         <dbl>      <dbl>       <dbl>     <dbl>    <dbl>
 1 Mexico        2020         0.647      0.412       0.369     1.53     0.023
 2 Suriname      2020         0.761      0.627       0.56      0.12    -0.813
 3 Sweden        2020         0.908      0.879       0.83     -2.08    -2.37 
 4 Switzerland   2020         0.894      0.851       0.832    -1.70    -2.66 
 5 Ghana         2020         0.72       0.614       0.534    -0.441   -0.008
 6 South Africa  2020         0.703      0.578       0.477     0.092    0.395
 7 Japan         2020         0.832      0.743       0.75     -1.54    -1.95 
 8 Myanmar       2020         0.436      0.271       0.253     0.886    1.28 
 9 Russia        2020         0.262      0.103       0.203     0.558    0.195
10 Albania       2020         0.485      0.409       0.358    -0.501   -0.119
# ℹ 169 more rows
# ℹ 34 more variables: e_peaveduc <dbl>, cpi <dbl>, e_regiongeo <dbl>,
#   e_regionpol_6C <dbl>, v2elcomvot <dbl>, compulsory_voting <dbl>,
#   bicameral <dbl>, dem_diff <dbl>, dem_increase <dbl>, dem_decrease <dbl>,
#   TypeSoc2005 <dbl>, TypeEcon2006 <dbl>, HDI2005 <dbl>, GDP2006 <dbl>,
#   TYPEDEMO1984 <dbl>, TYPEDEMO2007 <dbl>, Fragile2006 <dbl>,
#   Typeregime2006 <dbl>, TYPEGOV2007 <dbl>, CPI8085 <dbl>, …
…
