Statistische analyse en presentatie met R - 5 Voorspellingen en Fouten
…
We slaan de output hier op in een nieuw data object “model_binary_predictions”. Deze naam kun je zelf bepalen.

predictions(model_binary,

We gebruiken de predictions functie op het model tussen haakjes.

newdata = demdata)

Hier verduidelijken we de originele dataset voor deze voorspellingen. Deze syntax vertelt R dat we in ons nieuwe data object de voorspellingen willen, maar ook alle variabelen uit de originele dataset, niet enkel de variabelen gebruikt in het model. Dit is nuttig als we specifieke observaties willen identificeren (bv. door te kijken naar de naam van het land). Als je dit niet specificeert krijg je een dataset zonder de overige variabelen in de originele dataset.

De output kunnen we printen met behulp van de volgende code:

model_binary_predictions

# A tibble: 179 × 49
   rowid estimate std.error statistic    p.value s.value conf.low conf.high
   <int>    <dbl>     <dbl>     <dbl>      <dbl>   <dbl>    <dbl>     <dbl>
 1     1    0.690    0.0287      24.1  3.16e-128    424.    0.634     0.746
 2     2    0.418    0.0233      17.9  1.16e- 71    236.    0.372     0.463
 3     3    0.690    0.0287      24.1  3.16e-128    424.    0.634     0.746
 4     4    0.690    0.0287      24.1  3.16e-128    424.    0.634     0.746
 5     5    0.418    0.0233      17.9  1.16e- 71    236.    0.372     0.463
 6     6    0.418    0.0233      17.9  1.16e- 71    236.    0.372     0.463
 7     7    0.690    0.0287      24.1  3.16e-128    424.    0.634     0.746
 8     8    0.418    0.0233      17.9  1.16e- 71    236.    0.372     0.463
 9     9   NA       NA           NA   NA             NA    NA        NA    
10    10    0.418    0.0233      17.9  1.16e- 71    236.    0.372     0.463
# ℹ 169 more rows
# ℹ 41 more variables: country_name <chr>, year <dbl>, v2x_polyarchy <dbl>,
#   v2x_libdem <dbl>, v2x_egaldem <dbl>, v2cacamps <dbl>, v2caviol <dbl>,
#   e_peaveduc <dbl>, cpi <dbl>, e_regiongeo <dbl>, e_regionpol_6C <dbl>,
#   v2elcomvot <dbl>, compulsory_voting <dbl>, bicameral <dbl>, dem_diff <dbl>,
#   dem_increase <dbl>, dem_decrease <dbl>, TypeSoc2005 <dbl>,
#   TypeEcon2006 <dbl>, HDI2005 <dbl>, GDP2006 <dbl>, TYPEDEMO1984 <fct>, …
…
std.error, statistic, p.value, conf.low, en conf.high: de standaardfout van de voorspelling, t-statistiek, p-waarde en het 95% betrouwbaarheidsinterval. De s-waarde is een andere manier om onzekerheid weer te geven maar behoort niet tot de leerstof. 2

De overige kolommen bevatten de variabelen uit de originele dataset.

We kunnen het nieuwe dataobject gebruiken om ook de residuals te berekenen. Dit doen we door het verschil tussen echte en voorspelde waarde in een variabele op te nemen. 3

model_binary_predictions <- model_binary_predictions |> 
  mutate(residual_value = v2x_polyarchy - estimate) #residual = echte waarde - voorspelde waarde

Deze variabele kunnen we gebruiken om na te gaan welke observaties goed of slecht worden voorspeld. Dit kan nuttig zijn bij het nagaan of aan assumpties voldaan is, zie Chapter 7 .

model_binary_predictions |> 
  select(country_name, v2x_polyarchy, estimate, residual_value) 

# A tibble: 179 × 4
   country_name v2x_polyarchy estimate residual_value
   <chr>                <dbl>    <dbl>          <dbl>
 1 Mexico               0.647    0.690        -0.0432
 2 Suriname             0.761    0.418         0.343 
 3 Sweden               0.908    0.690         0.218 
 4 Switzerland          0.894    0.690         0.204 
 5 Ghana                0.72     0.418         0.302 
 6 South Africa         0.703    0.418         0.285 
 7 Japan                0.832    0.690         0.142 
 8 Myanmar              0.436    0.418         0.0184
 9 Russia               0.262   NA            NA     
10 Albania              0.485    0.418         0.0674
# ℹ 169 more rows
…
