Statistische analyse en presentatie met R - 11 Voorspelde kansen
…
Number of Fisher Scoring iterations: 4

11.1 Voorspelde kans voor individuele observaties

Om op basis van het logistische regressiemodel de kans dat de afhankelijke variabele Y gelijk is aan 1 (hier: dat een respondent heeft gestemd) te voorspellen voor elke observatie in het model maken we gebruik van de predictions functie. De resultaten worden altijd opgeslaan in een nieuwe dataset, die je een naam geeft naar keuze (hier: Vote_pred).

#Resultaten opslaan in nieuw object
Vote_pred <- predictions(Vote_model_mp,
                         conf_level = 0.95, 
                         newdata = ESS9NL)

#tibble() gebruiken voor overzicht
tibble(Vote_pred)

# A tibble: 1,673 × 578
   rowid estimate   p.value s.value conf.low conf.high name    essround edition
   <int>    <dbl>     <dbl>   <dbl>    <dbl>     <dbl> <chr>      <dbl> <chr>  
 1     1    0.835  6.13e-35   114.     0.796     0.867 ESS9e03        9 3      
 2     2    0.910  1.71e-56   185.     0.884     0.931 ESS9e03        9 3      
 3     3    0.904  4.26e-45   147.     0.874     0.928 ESS9e03        9 3      
 4     4   NA     NA           NA     NA        NA     ESS9e03        9 3      
 5     5    0.864  9.71e-39   126.     0.828     0.894 ESS9e03        9 3      
 6     6    0.912  7.81e-53   173.     0.884     0.933 ESS9e03        9 3      
 7     7    0.800  1.32e-12    39.5    0.731     0.854 ESS9e03        9 3      
 8     8    0.914  9.43e-31    99.7    0.877     0.941 ESS9e03        9 3      
 9     9    0.877  1.88e-47   155.     0.845     0.903 ESS9e03        9 3      
10    10    0.944  2.64e-39   128.     0.917     0.963 ESS9e03        9 3      
# ℹ 1,663 more rows
# ℹ 569 more variables: proddate <chr>, idno <dbl>, cntry <chr>, nwspol <dbl>,
#   netusoft <dbl>, netustm <dbl>, ppltrst <dbl>, pplfair <dbl>, pplhlp <dbl>,
#   polintr <dbl>, psppsgva <dbl>, actrolga <dbl>, psppipla <dbl>,
#   cptppola <dbl>, trstprl <dbl>, trstlgl <dbl>, trstplc <dbl>, trstplt <dbl>,
#   trstprt <dbl>, trstep <dbl>, trstun <dbl>, vote <fct>, prtvtcat <dbl>,
#   prtvtdbe <dbl>, prtvtdbg <dbl>, prtvtgch <dbl>, prtvtbcy <dbl>, …
…
